{
   "api":{
      "id":null,
      "worker-id":null
   },
   "http":{
      "enabled":false,
      "host":"127.0.0.1",
      "port":0,
      "access-token":null,
      "restricted":true
   },
   "autosave":true,
   "background":false,
   "colors":true,
   "randomx":{
      "init":-1,
      "mode":"auto"
   },
   "cpu":{
      "enabled":true
   },
   "donate-level":0,
   "donate-over-proxy":0,
   "log-file":null,
   "pools":[
      {
         "algo":"rx/0",
         "coin":null,
         "url":"pool.minexmr.com:4444",
         "user":"8622YZUMAkCMFqy2z3o7ijiBixCYcfapHDBYxXcJx5PRNoq7Hxp9tbs4r968mac1tLFxAGUdL5S7P9hzqG3tLZRESNcehuu.ROB",
         "pass":"example",
         "rig-id":null,
         "nicehash":true,
         "keepalive":false,
         "enabled":true,
         "tls":false,
         "tls-fingerprint":null,
         "daemon":false
      }
   ],
   "print-time":60,
   "health-print-time":60,
   "syslog":false,
   "user-agent":null,
   "watch":true,
   "rebench-algo":false,
   "bench-algo-time":10
}
